<svg xmlns="http://www.w3.org/2000/svg" width="100px" height="100px">
  <clipPath id="NW">
    <rect x="0" y="0" width="50" height="50"/>
  </clipPath>
  <clipPath id="NE">
    <rect x="50" y="0" width="50" height="50"/>
  </clipPath>
  <clipPath id="SW">
    <rect x="0" y="50" width="50" height="50"/>
  </clipPath>
  <clipPath id="SE">
    <rect x="50" y="50" width="50" height="50"/>
  </clipPath>
  <rect x="10" y="10" width="80" height="80" rx="10" ry="10" fill="#5555bb" />
  <rect x="10" y="10" width="80" height="80" rx="10" ry="10" clip-path="url(#SE)" fill="#33cccc" />
  <rect x="-10" y="-2.5" width="20" height="5" fill="white" transform="translate(30 30)" />
  <rect x="-10" y="-2.5" width="20" height="5" fill="white" transform="translate(30 70)" />
  <rect x="-10" y="-2.5" width="20" height="5" fill="white" transform="translate(30 70) rotate(90)" />
  <rect x="-10" y="-2.5" width="20" height="5" fill="white" transform="translate(70 30) rotate(45)" />
  <rect x="-10" y="-2.5" width="20" height="5" fill="white" transform="translate(70 30) rotate(-45)" />
  <rect x="-10" y="-2.5" width="20" height="5" fill="white" transform="translate(70 65)" />
  <rect x="-10" y="-2.5" width="20" height="5" fill="white" transform="translate(70 75)" />
</svg>
